{
  "schemaVersion": 1,
  "id": "noituutta",
  "version": "${version}",

  "name": "Noituutta",
  "description": "Become a powerful Noita in Minecraft!",
  "authors": [
    "SomeoneInParticular"
  ],
  "contact": {
    "homepage": "https://fabricmc.net/",
    "sources": "https://github.com/FabricMC/fabric-example-mod"
  },

  "license": "CC0-1.0",
  "icon": "assets/noituutta/icon.png",

  "environment": "*",
  "entrypoints": {
    "client": [
      "code.someoneinparticular.noituutta.NoituuttaClient"
    ],
    "main": [
      "code.someoneinparticular.noituutta.Noituutta"
    ]
  },
  "mixins": [
    "noituutta.mixins.json"
  ],

  "depends": {
    "fabricloader": ">=0.11.3",
    "fabric": "*",
    "minecraft": "1.17.x",
    "java": ">=16"
  },
  "suggests": {
    "another-mod": "*"
  }
}
